{
	"info": {
		"_postman_id": "ed846f10-906d-488c-a34f-2af3c71a9cc3",
		"name": "Exercise 14",
		"schema": "https://schema.getpostman.com/json/collection/v2.1.0/collection.json",
		"_exporter_id": "31719256"
	},
	"item": [
		{
			"name": "CALCULATION",
			"request": {
				"method": "GET",
				"header": [
					{
						"key": "x-calculation-method",
						"value": "divide",
						"type": "text"
					}
				],
				"url": {
					"raw": "{{hostname}}/calculator/create?a=2&b=0",
					"host": [
						"{{hostname}}"
					],
					"path": [
						"calculator",
						"create"
					],
					"query": [
						{
							"key": "a",
							"value": "2"
						},
						{
							"key": "b",
							"value": "0"
						}
					]
				}
			},
			"response": []
		}
	],
	"event": [
		{
			"listen": "prerequest",
			"script": {
				"type": "text/javascript",
				"packages": {},
				"exec": [
					""
				]
			}
		},
		{
			"listen": "test",
			"script": {
				"type": "text/javascript",
				"packages": {},
				"exec": [
					""
				]
			}
		}
	],
	"variable": [
		{
			"key": "hostname",
			"value": "http://localhost:8080/api/v1",
			"type": "string"
		}
	]
}